{
	"compiler": {
		"version": "0.8.7+commit.e28d00a7"
	},
	"language": "Solidity",
	"output": {
		"abi": [
			{
				"anonymous": false,
				"inputs": [
					{
						"indexed": false,
						"internalType": "uint256",
						"name": "_balance",
						"type": "uint256"
					}
				],
				"name": "balanceEvent",
				"type": "event"
			},
			{
				"anonymous": false,
				"inputs": [
					{
						"indexed": false,
						"internalType": "address",
						"name": "_wallet",
						"type": "address"
					},
					{
						"indexed": false,
						"internalType": "string",
						"name": "_id",
						"type": "string"
					}
				],
				"name": "send",
				"type": "event"
			},
			{
				"inputs": [
					{
						"internalType": "string",
						"name": "_id",
						"type": "string"
					}
				],
				"name": "Register",
				"outputs": [],
				"stateMutability": "payable",
				"type": "function"
			},
			{
				"inputs": [
					{
						"internalType": "uint256",
						"name": "",
						"type": "uint256"
					}
				],
				"name": "arrStudent",
				"outputs": [
					{
						"internalType": "string",
						"name": "_Id",
						"type": "string"
					},
					{
						"internalType": "address",
						"name": "_wallet",
						"type": "address"
					}
				],
				"stateMutability": "view",
				"type": "function"
			},
			{
				"inputs": [],
				"name": "balanceOf",
				"outputs": [
					{
						"internalType": "uint256",
						"name": "",
						"type": "uint256"
					}
				],
				"stateMutability": "nonpayable",
				"type": "function"
			},
			{
				"inputs": [
					{
						"internalType": "address payable",
						"name": "recipient",
						"type": "address"
					}
				],
				"name": "sendAll",
				"outputs": [],
				"stateMutability": "nonpayable",
				"type": "function"
			},
			{
				"inputs": [
					{
						"internalType": "address payable",
						"name": "recipient",
						"type": "address"
					},
					{
						"internalType": "uint256",
						"name": "_amount",
						"type": "uint256"
					}
				],
				"name": "sendEther",
				"outputs": [],
				"stateMutability": "nonpayable",
				"type": "function"
			},
			{
				"inputs": [
					{
						"internalType": "address payable",
						"name": "recipient",
						"type": "address"
					},
					{
						"internalType": "uint256",
						"name": "_amount",
						"type": "uint256"
					}
				],
				"name": "sendWei",
				"outputs": [],
				"stateMutability": "nonpayable",
				"type": "function"
			}
		],
		"devdoc": {
			"kind": "dev",
			"methods": {},
			"version": 1
		},
		"userdoc": {
			"kind": "user",
			"methods": {},
			"version": 1
		}
	},
	"settings": {
		"compilationTarget": {
			"minigame.sol": "MiniGame"
		},
		"evmVersion": "london",
		"libraries": {},
		"metadata": {
			"bytecodeHash": "ipfs"
		},
		"optimizer": {
			"enabled": false,
			"runs": 200
		},
		"remappings": []
	},
	"sources": {
		"minigame.sol": {
			"keccak256": "0x018c8b941825c375199f246330a86b13115fb2c21bfbbc812ccfe02838ca2395",
			"urls": [
				"bzz-raw://f761a99dd6cd4d6bb485b7bc2b764065c94fbfd8763c4c5188aae1ed9ceeacbb",
				"dweb:/ipfs/QmRZmFb3oPXm3MCMB63rmnUEHriStVziJ2q2FBuZ3njC59"
			]
		}
	},
	"version": 1
}